%YAML 1.1
%TAG !u! tag:unity3d.com,2011:
--- !u!162 &1
EditorUserSettings:
  m_ObjectHideFlags: 0
  serializedVersion: 4
  m_ConfigSettings:
    RecentlyUsedScenePath-0:
      value: 2242470311464677080f026d242c4a131e5c570f34292b20212c0e7cd1f73d28e7a866b8a71c36323e07fd7c3729082ff7441c05ff1f13
      flags: 0
    RecentlyUsedScenePath-1:
      value: 2242470311464677080f026d242c4a131e5c570f34292b20212c0e7cc4ef3834edf079b9b67a1c343811ea7c571a4f2afc031d12
      flags: 0
    RecentlyUsedScenePath-2:
      value: 2242470311464677080f026d242c4a131e5c570f34292b20212c0e7cc6f2353fadb767a9c3283e3b7717e1351027
      flags: 0
    RecentlyUsedScenePath-3:
      value: 2242470311464677080f026d242c4a131e5c570f34292b20212c0e7cc6f2353fadb763a9a77a7f7c7942dc28012e4f2afc031d12
      flags: 0
    RecentlyUsedScenePath-4:
      value: 2242470311464677080f026d242c4a131e5c570f34292b20212c0e7cc6f2353fadb761a9c3283e3b140df939551a4f2afc031d12
      flags: 0
    RecentlyUsedScenePath-5:
      value: 2242470311464677080f026d242c4a131e5c570f34292b20212c0e7cc6f2353fadb661a9c3332d393a16e6330a701431fb1e10
      flags: 0
    RecentlyUsedScenePath-6:
      value: 22424703114646643d1c032815204b5f25141d24293b69343f281b27a2b17a2decee22f0
      flags: 0
    RecentlyUsedScenePath-7:
      value: 22424703114646643d1c032815204b5f25141d24293b69032c240d3fe7d3373dece278fce9332b25
      flags: 0
    RecentlyUsedScenePath-8:
      value: 22424703114646643d1c032815204b5f25141d24293b69172c24187df7ee3d2cfb
      flags: 0
    RecentlyUsedScenePath-9:
      value: 22424703114646643d1c032815204b5f25141d24293b69343f281b27acf53a31f6fe
      flags: 0
    vcSharedLogLevel:
      value: 0d5e400f0650
      flags: 0
  m_VCAutomaticAdd: 1
  m_VCDebugCom: 0
  m_VCDebugCmd: 0
  m_VCDebugOut: 0
  m_SemanticMergeMode: 2
  m_VCShowFailedCheckout: 1
  m_VCOverwriteFailedCheckoutAssets: 1
  m_VCProjectOverlayIcons: 1
  m_VCHierarchyOverlayIcons: 1
  m_VCOtherOverlayIcons: 1
  m_VCAllowAsyncUpdate: 1
